EESchema Schematic File Version 4
EELAYER 30 0
EELAYER END
$Descr User 7874 5906
encoding utf-8
Sheet 1 1
Title "ATmega328P I2C-Slave Platine"
Date "2021-06-07"
Rev ""
Comp "Sebastian Link ET18A"
Comment1 "DHBW Mosbach"
Comment2 "Studiengang Elektrotechnik"
Comment3 ""
Comment4 ""
$EndDescr
$Comp
L Sensornode-eagle-import:ATMEGA328P IC1
U 1 1 60BE80B9
P 2750 2250
F 0 "IC1" H 2950 3636 59  0000 C CNN
F 1 "ATMEGA328P" H 2950 3531 59  0000 C CNN
F 2 "Sensornode:DIL28-3" H 2750 2250 50  0001 C CNN
F 3 "" H 2750 2250 50  0001 C CNN
	1    2750 2250
	1    0    0    -1  
$EndComp
$Comp
L Sensornode-eagle-import:MA04-1 SV2
U 1 1 60BE9B40
P 5150 1950
F 0 "SV2" H 5072 1847 59  0000 R CNN
F 1 "MA04-1" H 5072 1952 59  0000 R CNN
F 2 "Sensornode:MA04-1" H 5150 1950 50  0001 C CNN
F 3 "" H 5150 1950 50  0001 C CNN
	1    5150 1950
	-1   0    0    1   
$EndComp
$Comp
L Sensornode-eagle-import:MA04-1 SV1
U 1 1 60BE9CEC
P 5150 1400
F 0 "SV1" H 5072 1297 59  0000 R CNN
F 1 "MA04-1" H 5072 1402 59  0000 R CNN
F 2 "Sensornode:MA04-1" H 5150 1400 50  0001 C CNN
F 3 "" H 5150 1400 50  0001 C CNN
	1    5150 1400
	-1   0    0    1   
$EndComp
$Comp
L Sensornode-eagle-import:MA04-1 SV3
U 1 1 60BEBE0E
P 5150 2550
F 0 "SV3" H 5072 2447 59  0000 R CNN
F 1 "MA04-1" H 5072 2552 59  0000 R CNN
F 2 "Sensornode:MA04-1" H 5150 2550 50  0001 C CNN
F 3 "" H 5150 2550 50  0001 C CNN
	1    5150 2550
	-1   0    0    1   
$EndComp
Text Label 4750 2050 0    50   ~ 0
SCL
Text Label 4750 1500 0    50   ~ 0
SCL
Text Label 4750 1400 0    50   ~ 0
SDA
Text Label 4750 1950 0    50   ~ 0
SDA
Text Label 4050 1550 0    50   ~ 0
SDA
Text Label 4050 1650 0    50   ~ 0
SCL
Text Label 4800 2350 0    50   ~ 0
RX
Text Label 4800 2450 0    50   ~ 0
TX
$Comp
L power:+5V #PWR05
U 1 1 60BF4179
P 4750 1200
F 0 "#PWR05" H 4750 1050 50  0001 C CNN
F 1 "+5V" V 4765 1328 50  0000 L CNN
F 2 "" H 4750 1200 50  0001 C CNN
F 3 "" H 4750 1200 50  0001 C CNN
	1    4750 1200
	0    -1   -1   0   
$EndComp
$Comp
L power:+5V #PWR03
U 1 1 60BF5F03
P 4700 1750
F 0 "#PWR03" H 4700 1600 50  0001 C CNN
F 1 "+5V" V 4715 1878 50  0000 L CNN
F 2 "" H 4700 1750 50  0001 C CNN
F 3 "" H 4700 1750 50  0001 C CNN
	1    4700 1750
	0    -1   -1   0   
$EndComp
Wire Wire Line
	4050 1550 4250 1550
$Comp
L Sensornode-eagle-import:GND #GND03
U 1 1 60BF94C0
P 4550 1300
F 0 "#GND03" H 4550 1300 50  0001 C CNN
F 1 "GND" V 4550 1231 59  0000 R CNN
F 2 "" H 4550 1300 50  0001 C CNN
F 3 "" H 4550 1300 50  0001 C CNN
	1    4550 1300
	0    1    1    0   
$EndComp
$Comp
L Sensornode-eagle-import:GND #GND04
U 1 1 60BFA1FA
P 4550 1850
F 0 "#GND04" H 4550 1850 50  0001 C CNN
F 1 "GND" V 4550 1781 59  0000 R CNN
F 2 "" H 4550 1850 50  0001 C CNN
F 3 "" H 4550 1850 50  0001 C CNN
	1    4550 1850
	0    1    1    0   
$EndComp
Wire Wire Line
	4050 1650 4300 1650
Wire Wire Line
	4300 1650 4300 2050
Wire Wire Line
	4300 2050 4850 2050
Wire Wire Line
	4300 1650 4300 1500
Wire Wire Line
	4300 1500 4850 1500
Connection ~ 4300 1650
Wire Wire Line
	4250 1550 4250 1400
Wire Wire Line
	4250 1400 4850 1400
Connection ~ 4250 1550
Wire Wire Line
	4250 1550 4250 1950
Wire Wire Line
	4250 1950 4850 1950
Wire Wire Line
	4650 1300 4850 1300
Wire Wire Line
	4750 1200 4850 1200
Wire Wire Line
	4700 1750 4850 1750
Wire Wire Line
	4650 1850 4850 1850
$Comp
L power:+5V #PWR04
U 1 1 60BFEC7C
P 4700 2650
F 0 "#PWR04" H 4700 2500 50  0001 C CNN
F 1 "+5V" V 4715 2778 50  0000 L CNN
F 2 "" H 4700 2650 50  0001 C CNN
F 3 "" H 4700 2650 50  0001 C CNN
	1    4700 2650
	0    -1   -1   0   
$EndComp
$Comp
L Sensornode-eagle-import:GND #GND02
U 1 1 60BFF851
P 4350 2550
F 0 "#GND02" H 4350 2550 50  0001 C CNN
F 1 "GND" V 4350 2481 59  0000 R CNN
F 2 "" H 4350 2550 50  0001 C CNN
F 3 "" H 4350 2550 50  0001 C CNN
	1    4350 2550
	0    1    1    0   
$EndComp
Wire Wire Line
	4050 2250 4250 2250
Wire Wire Line
	4250 2250 4250 2450
Wire Wire Line
	4250 2450 4850 2450
Wire Wire Line
	4300 2350 4300 2150
Wire Wire Line
	4300 2150 4050 2150
Wire Wire Line
	4300 2350 4850 2350
$Comp
L Sensornode-eagle-import:GND #GND01
U 1 1 60C01CD3
P 1600 2350
F 0 "#GND01" H 1600 2350 50  0001 C CNN
F 1 "GND" V 1600 2281 59  0000 R CNN
F 2 "" H 1600 2350 50  0001 C CNN
F 3 "" H 1600 2350 50  0001 C CNN
	1    1600 2350
	0    1    1    0   
$EndComp
$Comp
L power:+5V #PWR01
U 1 1 60C0249F
P 1700 2550
F 0 "#PWR01" H 1700 2400 50  0001 C CNN
F 1 "+5V" V 1715 2678 50  0000 L CNN
F 2 "" H 1700 2550 50  0001 C CNN
F 3 "" H 1700 2550 50  0001 C CNN
	1    1700 2550
	0    -1   -1   0   
$EndComp
$Comp
L power:+5V #PWR02
U 1 1 60C036BC
P 1750 1550
F 0 "#PWR02" H 1750 1400 50  0001 C CNN
F 1 "+5V" V 1765 1678 50  0000 L CNN
F 2 "" H 1750 1550 50  0001 C CNN
F 3 "" H 1750 1550 50  0001 C CNN
	1    1750 1550
	0    -1   -1   0   
$EndComp
Wire Wire Line
	1750 1550 1850 1550
Wire Wire Line
	1700 2350 1850 2350
Wire Wire Line
	1700 2550 1850 2550
Text Notes 5250 1700 0    50   ~ 0
Eingang und Weiterleitung\nSpannungsversorgung und I2C-Bus
Text Notes 4350 2950 0    50   ~ 0
Anschluss Leseköpfe\nSpannung sowie RX und TX
Wire Wire Line
	4700 2650 4850 2650
Wire Wire Line
	4450 2550 4850 2550
$EndSCHEMATC
