(module DIL28-3 (layer F.Cu) (tedit 0)
  (descr "<B>Dual In Line</B><p>\npackage type P")
<<<<<<< HEAD
  (fp_text reference IC1 (at -17.907 2.54 90) (layer F.SilkS)
    (effects (font (size 1.6891 1.6891) (thickness 0.1778)) (justify right top))
  )
  (fp_text value ATMEGA328-20P (at -15.748 0.9398) (layer F.Fab)
    (effects (font (size 1.6891 1.6891) (thickness 0.1778)) (justify right top))
=======
  (fp_text reference IC1 (at -17.907 2.54 90) (layer F.SilkS) hide
    (effects (font (size 1.6891 1.6891) (thickness 0.1778)) (justify right top))
  )
  (fp_text value ATMEGA328-20P (at -15.748 0.9398 -180) (layer F.Fab)
    (effects (font (size 1.6891 1.6891) (thickness 0.16891)) (justify left bottom))
>>>>>>> c6a6321... converted pcb from eagle to Kicad
  )
  (fp_line (start -17.78 1.27) (end -17.78 2.54) (layer F.SilkS) (width 0.1524))
  (fp_arc (start -17.78 0) (end -17.78 -1.27) (angle 180) (layer F.SilkS) (width 0.1524))
  (fp_line (start 17.78 2.54) (end 17.78 -2.54) (layer F.SilkS) (width 0.1524))
  (fp_line (start -17.78 -2.54) (end -17.78 -1.27) (layer F.SilkS) (width 0.1524))
  (fp_line (start -17.78 -2.54) (end 17.78 -2.54) (layer F.SilkS) (width 0.1524))
  (fp_line (start -17.653 2.54) (end 17.78 2.54) (layer F.SilkS) (width 0.1524))
  (pad 1 thru_hole oval (at -16.51 3.81 90) (size 2.4384 1.2192) (drill 0.8128) (layers *.Cu *.Mask)
    (solder_mask_margin 0.0762))
  (pad 2 thru_hole oval (at -13.97 3.81 90) (size 2.4384 1.2192) (drill 0.8128) (layers *.Cu *.Mask)
    (solder_mask_margin 0.0762))
  (pad 3 thru_hole oval (at -11.43 3.81 90) (size 2.4384 1.2192) (drill 0.8128) (layers *.Cu *.Mask)
    (solder_mask_margin 0.0762))
  (pad 4 thru_hole oval (at -8.89 3.81 90) (size 2.4384 1.2192) (drill 0.8128) (layers *.Cu *.Mask)
    (solder_mask_margin 0.0762))
  (pad 5 thru_hole oval (at -6.35 3.81 90) (size 2.4384 1.2192) (drill 0.8128) (layers *.Cu *.Mask)
    (solder_mask_margin 0.0762))
  (pad 6 thru_hole oval (at -3.81 3.81 90) (size 2.4384 1.2192) (drill 0.8128) (layers *.Cu *.Mask)
    (solder_mask_margin 0.0762))
  (pad 7 thru_hole oval (at -1.27 3.81 90) (size 2.4384 1.2192) (drill 0.8128) (layers *.Cu *.Mask)
    (solder_mask_margin 0.0762))
  (pad 8 thru_hole oval (at 1.27 3.81 90) (size 2.4384 1.2192) (drill 0.8128) (layers *.Cu *.Mask)
    (solder_mask_margin 0.0762))
  (pad 9 thru_hole oval (at 3.81 3.81 90) (size 2.4384 1.2192) (drill 0.8128) (layers *.Cu *.Mask)
    (solder_mask_margin 0.0762))
  (pad 10 thru_hole oval (at 6.35 3.81 90) (size 2.4384 1.2192) (drill 0.8128) (layers *.Cu *.Mask)
    (solder_mask_margin 0.0762))
  (pad 11 thru_hole oval (at 8.89 3.81 90) (size 2.4384 1.2192) (drill 0.8128) (layers *.Cu *.Mask)
    (solder_mask_margin 0.0762))
  (pad 12 thru_hole oval (at 11.43 3.81 90) (size 2.4384 1.2192) (drill 0.8128) (layers *.Cu *.Mask)
    (solder_mask_margin 0.0762))
  (pad 13 thru_hole oval (at 13.97 3.81 90) (size 2.4384 1.2192) (drill 0.8128) (layers *.Cu *.Mask)
    (solder_mask_margin 0.0762))
  (pad 14 thru_hole oval (at 16.51 3.81 90) (size 2.4384 1.2192) (drill 0.8128) (layers *.Cu *.Mask)
    (solder_mask_margin 0.0762))
  (pad 15 thru_hole oval (at 16.51 -3.81 90) (size 2.4384 1.2192) (drill 0.8128) (layers *.Cu *.Mask)
    (solder_mask_margin 0.0762))
  (pad 16 thru_hole oval (at 13.97 -3.81 90) (size 2.4384 1.2192) (drill 0.8128) (layers *.Cu *.Mask)
    (solder_mask_margin 0.0762))
  (pad 17 thru_hole oval (at 11.43 -3.81 90) (size 2.4384 1.2192) (drill 0.8128) (layers *.Cu *.Mask)
    (solder_mask_margin 0.0762))
  (pad 18 thru_hole oval (at 8.89 -3.81 90) (size 2.4384 1.2192) (drill 0.8128) (layers *.Cu *.Mask)
    (solder_mask_margin 0.0762))
  (pad 19 thru_hole oval (at 6.35 -3.81 90) (size 2.4384 1.2192) (drill 0.8128) (layers *.Cu *.Mask)
    (solder_mask_margin 0.0762))
  (pad 20 thru_hole oval (at 3.81 -3.81 90) (size 2.4384 1.2192) (drill 0.8128) (layers *.Cu *.Mask)
    (solder_mask_margin 0.0762))
  (pad 21 thru_hole oval (at 1.27 -3.81 90) (size 2.4384 1.2192) (drill 0.8128) (layers *.Cu *.Mask)
    (solder_mask_margin 0.0762))
  (pad 22 thru_hole oval (at -1.27 -3.81 90) (size 2.4384 1.2192) (drill 0.8128) (layers *.Cu *.Mask)
    (solder_mask_margin 0.0762))
  (pad 23 thru_hole oval (at -3.81 -3.81 90) (size 2.4384 1.2192) (drill 0.8128) (layers *.Cu *.Mask)
    (solder_mask_margin 0.0762))
  (pad 24 thru_hole oval (at -6.35 -3.81 90) (size 2.4384 1.2192) (drill 0.8128) (layers *.Cu *.Mask)
    (solder_mask_margin 0.0762))
  (pad 25 thru_hole oval (at -8.89 -3.81 90) (size 2.4384 1.2192) (drill 0.8128) (layers *.Cu *.Mask)
    (solder_mask_margin 0.0762))
  (pad 26 thru_hole oval (at -11.43 -3.81 90) (size 2.4384 1.2192) (drill 0.8128) (layers *.Cu *.Mask)
    (solder_mask_margin 0.0762))
  (pad 27 thru_hole oval (at -13.97 -3.81 90) (size 2.4384 1.2192) (drill 0.8128) (layers *.Cu *.Mask)
    (solder_mask_margin 0.0762))
  (pad 28 thru_hole oval (at -16.51 -3.81 90) (size 2.4384 1.2192) (drill 0.8128) (layers *.Cu *.Mask)
    (solder_mask_margin 0.0762))
)
