(module MA04-1 (layer F.Cu) (tedit 0)
  (descr "<b>PIN HEADER</b>")
  (fp_text reference US (at -8.89 0.889) (layer F.SilkS)
    (effects (font (size 1.2065 1.2065) (thickness 0.12065)) (justify left bottom))
  )
  (fp_text value "" (at 0.635 -1.651) (layer F.Fab)
    (effects (font (size 1.2065 1.2065) (thickness 0.12065)) (justify left bottom))
  )
  (fp_line (start -4.445 -1.27) (end -3.175 -1.27) (layer F.SilkS) (width 0.1524))
  (fp_line (start -3.175 -1.27) (end -2.54 -0.635) (layer F.SilkS) (width 0.1524))
  (fp_line (start -2.54 0.635) (end -3.175 1.27) (layer F.SilkS) (width 0.1524))
  (fp_line (start -2.54 -0.635) (end -1.905 -1.27) (layer F.SilkS) (width 0.1524))
  (fp_line (start -1.905 -1.27) (end -0.635 -1.27) (layer F.SilkS) (width 0.1524))
  (fp_line (start -0.635 -1.27) (end 0 -0.635) (layer F.SilkS) (width 0.1524))
  (fp_line (start 0 0.635) (end -0.635 1.27) (layer F.SilkS) (width 0.1524))
  (fp_line (start -0.635 1.27) (end -1.905 1.27) (layer F.SilkS) (width 0.1524))
  (fp_line (start -1.905 1.27) (end -2.54 0.635) (layer F.SilkS) (width 0.1524))
  (fp_line (start -5.08 -0.635) (end -5.08 0.635) (layer F.SilkS) (width 0.1524))
  (fp_line (start -4.445 -1.27) (end -5.08 -0.635) (layer F.SilkS) (width 0.1524))
  (fp_line (start -5.08 0.635) (end -4.445 1.27) (layer F.SilkS) (width 0.1524))
  (fp_line (start -3.175 1.27) (end -4.445 1.27) (layer F.SilkS) (width 0.1524))
  (fp_line (start 0 -0.635) (end 0.635 -1.27) (layer F.SilkS) (width 0.1524))
  (fp_line (start 0.635 -1.27) (end 1.905 -1.27) (layer F.SilkS) (width 0.1524))
  (fp_line (start 1.905 -1.27) (end 2.54 -0.635) (layer F.SilkS) (width 0.1524))
  (fp_line (start 2.54 0.635) (end 1.905 1.27) (layer F.SilkS) (width 0.1524))
  (fp_line (start 1.905 1.27) (end 0.635 1.27) (layer F.SilkS) (width 0.1524))
  (fp_line (start 0.635 1.27) (end 0 0.635) (layer F.SilkS) (width 0.1524))
  (fp_line (start 3.175 -1.27) (end 4.445 -1.27) (layer F.SilkS) (width 0.1524))
  (fp_line (start 4.445 -1.27) (end 5.08 -0.635) (layer F.SilkS) (width 0.1524))
  (fp_line (start 5.08 -0.635) (end 5.08 0.635) (layer F.SilkS) (width 0.1524))
  (fp_line (start 5.08 0.635) (end 4.445 1.27) (layer F.SilkS) (width 0.1524))
  (fp_line (start 3.175 -1.27) (end 2.54 -0.635) (layer F.SilkS) (width 0.1524))
  (fp_line (start 2.54 0.635) (end 3.175 1.27) (layer F.SilkS) (width 0.1524))
  (fp_line (start 4.445 1.27) (end 3.175 1.27) (layer F.SilkS) (width 0.1524))
  (fp_text user 1 (at -6.223 0.635) (layer F.SilkS)
    (effects (font (size 1.2065 1.2065) (thickness 0.127)) (justify left bottom))
  )
  (fp_text user 4 (at 5.334 0.635) (layer F.SilkS)
    (effects (font (size 1.2065 1.2065) (thickness 0.127)) (justify left bottom))
  )
  (fp_poly (pts (xy -1.524 0.254) (xy -1.016 0.254) (xy -1.016 -0.254) (xy -1.524 -0.254)) (layer F.Fab) (width 0))
  (fp_poly (pts (xy -4.064 0.254) (xy -3.556 0.254) (xy -3.556 -0.254) (xy -4.064 -0.254)) (layer F.Fab) (width 0))
  (fp_poly (pts (xy 1.016 0.254) (xy 1.524 0.254) (xy 1.524 -0.254) (xy 1.016 -0.254)) (layer F.Fab) (width 0))
  (fp_poly (pts (xy 3.556 0.254) (xy 4.064 0.254) (xy 4.064 -0.254) (xy 3.556 -0.254)) (layer F.Fab) (width 0))
  (pad 1 thru_hole oval (at -3.81 0 90) (size 2.8448 1.4224) (drill 1.016) (layers *.Cu *.Mask)
    (solder_mask_margin 0.0762))
  (pad 2 thru_hole oval (at -1.27 0 90) (size 2.8448 1.4224) (drill 1.016) (layers *.Cu *.Mask)
    (solder_mask_margin 0.0762))
  (pad 3 thru_hole oval (at 1.27 0 90) (size 2.8448 1.4224) (drill 1.016) (layers *.Cu *.Mask)
    (solder_mask_margin 0.0762))
  (pad 4 thru_hole oval (at 3.81 0 90) (size 2.8448 1.4224) (drill 1.016) (layers *.Cu *.Mask)
    (solder_mask_margin 0.0762))
)
