(module C5B2.5 (layer F.Cu) (tedit 0)
  (descr "<B>MKS2</B>, 7.5 x 2.5 mm, grid 5.08 mm")
  (fp_text reference C6 (at -2.032 -1.524) (layer F.SilkS) hide
    (effects (font (size 1.2065 1.2065) (thickness 0.127)) (justify right top))
  )
  (fp_text value 0.1uF (at -1.651 3.048 -180) (layer F.Fab)
    (effects (font (size 1.2065 1.2065) (thickness 0.12065)) (justify left bottom))
  )
  (fp_line (start -0.3048 -0.635) (end -0.3048 0) (layer F.SilkS) (width 0.3048))
  (fp_line (start -0.3048 0) (end -0.3048 0.635) (layer F.SilkS) (width 0.3048))
  (fp_line (start -0.3048 0) (end -1.524 0) (layer F.SilkS) (width 0.1524))
  (fp_line (start 0.3302 -0.635) (end 0.3302 0) (layer F.SilkS) (width 0.3048))
  (fp_line (start 0.3302 0) (end 0.3302 0.635) (layer F.SilkS) (width 0.3048))
  (fp_line (start 0.3302 0) (end 1.524 0) (layer F.SilkS) (width 0.1524))
  (fp_line (start -3.683 -1.016) (end -3.683 1.016) (layer F.SilkS) (width 0.1524))
  (fp_line (start -3.429 1.27) (end 3.429 1.27) (layer F.SilkS) (width 0.1524))
  (fp_line (start 3.683 1.016) (end 3.683 -1.016) (layer F.SilkS) (width 0.1524))
  (fp_line (start 3.429 -1.27) (end -3.429 -1.27) (layer F.SilkS) (width 0.1524))
  (fp_arc (start 3.429 -1.016) (end 3.429 -1.27) (angle 90) (layer F.SilkS) (width 0.1524))
  (fp_arc (start 3.429 1.016) (end 3.429 1.27) (angle -90) (layer F.SilkS) (width 0.1524))
  (fp_arc (start -3.429 1.016) (end -3.683 1.016) (angle -90) (layer F.SilkS) (width 0.1524))
  (fp_arc (start -3.429 -1.016) (end -3.683 -1.016) (angle 90) (layer F.SilkS) (width 0.1524))
  (pad 1 thru_hole circle (at -2.54 0) (size 1.6002 1.6002) (drill 0.8128) (layers *.Cu *.Mask)
    (solder_mask_margin 0.0762))
  (pad 2 thru_hole circle (at 2.54 0) (size 1.6002 1.6002) (drill 0.8128) (layers *.Cu *.Mask)
    (solder_mask_margin 0.0762))
)
