(module DO35-7 (layer F.Cu) (tedit 0)
  (descr "<B>DIODE</B><p>\ndiameter 2 mm, horizontal, grid 7.62 mm")
  (fp_text reference D1 (at -2.286 -1.27) (layer F.SilkS)
    (effects (font (size 1.2065 1.2065) (thickness 0.12065)) (justify left bottom))
  )
  (fp_text value 1N4148DO35-7 (at -2.286 2.667) (layer F.Fab) hide
    (effects (font (size 1.2065 1.2065) (thickness 0.127)) (justify left bottom))
  )
  (fp_line (start 3.81 0) (end 2.921 0) (layer F.Fab) (width 0.508))
  (fp_line (start -3.81 0) (end -2.921 0) (layer F.Fab) (width 0.508))
  (fp_line (start -0.635 0) (end 0 0) (layer F.SilkS) (width 0.1524))
  (fp_line (start 1.016 -0.635) (end 1.016 0.635) (layer F.SilkS) (width 0.1524))
  (fp_line (start 1.016 0.635) (end 0 0) (layer F.SilkS) (width 0.1524))
  (fp_line (start 0 0) (end 1.524 0) (layer F.SilkS) (width 0.1524))
  (fp_line (start 0 0) (end 1.016 -0.635) (layer F.SilkS) (width 0.1524))
  (fp_line (start 0 -0.635) (end 0 0) (layer F.SilkS) (width 0.1524))
  (fp_line (start 0 0) (end 0 0.635) (layer F.SilkS) (width 0.1524))
  (fp_arc (start 2.032 -0.762) (end 2.032 -1.016) (angle 90) (layer F.SilkS) (width 0.1524))
  (fp_line (start 2.286 -0.762) (end 2.286 0.762) (layer F.SilkS) (width 0.1524))
  (fp_arc (start 2.032 0.762) (end 2.032 1.016) (angle -90) (layer F.SilkS) (width 0.1524))
  (fp_arc (start -2.032 -0.762) (end -2.286 -0.762) (angle 90) (layer F.SilkS) (width 0.1524))
  (fp_arc (start -2.032 0.762) (end -2.286 0.762) (angle -90) (layer F.SilkS) (width 0.1524))
  (fp_line (start -2.032 1.016) (end 2.032 1.016) (layer F.SilkS) (width 0.1524))
  (fp_line (start -2.286 -0.762) (end -2.286 0.762) (layer F.SilkS) (width 0.1524))
  (fp_line (start -2.032 -1.016) (end 2.032 -1.016) (layer F.SilkS) (width 0.1524))
  (fp_poly (pts (xy -1.905 1.016) (xy -1.397 1.016) (xy -1.397 -1.016) (xy -1.905 -1.016)) (layer F.SilkS) (width 0))
  (fp_poly (pts (xy 2.286 0.254) (xy 2.921 0.254) (xy 2.921 -0.254) (xy 2.286 -0.254)) (layer F.SilkS) (width 0))
  (fp_poly (pts (xy -2.921 0.254) (xy -2.286 0.254) (xy -2.286 -0.254) (xy -2.921 -0.254)) (layer F.SilkS) (width 0))
  (pad C thru_hole oval (at -3.81 0) (size 2.4384 1.2192) (drill 0.8128) (layers *.Cu *.Mask)
    (solder_mask_margin 0.0762))
  (pad A thru_hole oval (at 3.81 0) (size 2.4384 1.2192) (drill 0.8128) (layers *.Cu *.Mask)
    (solder_mask_margin 0.0762))
)
