(module E2-5 (layer F.Cu) (tedit 0)
  (descr "<b>ELECTROLYTIC CAPACITOR</b><p>\ngrid 2.032 mm, diameter 5 mm")
  (fp_text reference C7 (at 2.54 -1.016) (layer F.SilkS) hide
    (effects (font (size 1.2065 1.2065) (thickness 0.127)) (justify left bottom))
  )
  (fp_text value 10uF (at -6.731 0.508) (layer F.Fab)
    (effects (font (size 1.2065 1.2065) (thickness 0.12065)) (justify left bottom))
  )
  (fp_line (start -1.524 0) (end -0.762 0) (layer F.Fab) (width 0.1524))
  (fp_line (start -0.762 0) (end -0.762 1.016) (layer F.Fab) (width 0.1524))
  (fp_line (start -0.762 1.016) (end -0.254 1.016) (layer F.Fab) (width 0.1524))
  (fp_line (start -0.254 1.016) (end -0.254 -1.016) (layer F.Fab) (width 0.1524))
  (fp_line (start -0.254 -1.016) (end -0.762 -1.016) (layer F.Fab) (width 0.1524))
  (fp_line (start -0.762 -1.016) (end -0.762 0) (layer F.Fab) (width 0.1524))
  (fp_line (start 0.635 0) (end 1.524 0) (layer F.Fab) (width 0.1524))
  (fp_line (start -1.27 -1.778) (end -0.762 -1.778) (layer F.SilkS) (width 0.1524))
  (fp_line (start -1.016 -1.524) (end -1.016 -2.032) (layer F.SilkS) (width 0.1524))
  (fp_circle (center 0 0) (end 2.54 0) (layer F.SilkS) (width 0.1524))
  (fp_poly (pts (xy 0.254 1.016) (xy 0.762 1.016) (xy 0.762 -1.016) (xy 0.254 -1.016)) (layer F.Fab) (width 0))
  (pad - thru_hole circle (at 1.016 0) (size 1.27 1.27) (drill 0.8128) (layers *.Cu *.Mask)
    (solder_mask_margin 0.0762))
  (pad + thru_hole circle (at -1.016 0) (size 1.27 1.27) (drill 0.8128) (layers *.Cu *.Mask)
    (solder_mask_margin 0.0762))
)
