(module TEMP-HUM-SENSOR-DHT11 (layer F.Cu) (tedit 0)
  (descr "<b>DHT11 - digital humidity & temperature sensor</b>")
  (fp_text reference U$2 (at 0 -3.81) (layer F.SilkS) hide
    (effects (font (size 1.2065 1.2065) (thickness 0.1016)) (justify bottom))
  )
  (fp_text value TEMP-HUM-SENSOR-DHT11 (at 6.604 0.254 -90) (layer F.Fab)
    (effects (font (size 1.2065 1.2065) (thickness 0.09652)) (justify top))
  )
  (fp_line (start -6.35 -2.54) (end 6.35 -2.54) (layer F.SilkS) (width 0.127))
  (fp_line (start 6.35 -2.54) (end 6.35 -1.905) (layer F.SilkS) (width 0.127))
  (fp_line (start 6.35 -1.905) (end 6.35 3.556) (layer F.SilkS) (width 0.127))
  (fp_line (start 6.35 3.556) (end 3.175 3.556) (layer F.SilkS) (width 0.127))
  (fp_line (start 3.175 3.556) (end 1.905 3.556) (layer F.SilkS) (width 0.127))
  (fp_line (start 1.905 3.556) (end 0.635 3.556) (layer F.SilkS) (width 0.127))
  (fp_line (start 0.635 3.556) (end -0.635 3.556) (layer F.SilkS) (width 0.127))
  (fp_line (start -0.635 3.556) (end -1.905 3.556) (layer F.SilkS) (width 0.127))
  (fp_line (start -1.905 3.556) (end -3.175 3.556) (layer F.SilkS) (width 0.127))
  (fp_line (start -3.175 3.556) (end -6.35 3.556) (layer F.SilkS) (width 0.127))
  (fp_line (start -6.35 3.556) (end -6.35 -1.905) (layer F.SilkS) (width 0.127))
  (fp_line (start -6.35 -1.905) (end -6.35 -2.54) (layer F.SilkS) (width 0.127))
  (fp_line (start -0.635 3.556) (end -0.635 1.905) (layer F.SilkS) (width 0.127))
  (fp_line (start -0.635 1.905) (end 0.635 1.905) (layer F.SilkS) (width 0.127))
  (fp_line (start 0.635 1.905) (end 0.635 3.556) (layer F.SilkS) (width 0.127))
  (fp_line (start -3.175 3.556) (end -3.175 1.905) (layer F.SilkS) (width 0.127))
  (fp_line (start -3.175 1.905) (end -1.905 1.905) (layer F.SilkS) (width 0.127))
  (fp_line (start -1.905 1.905) (end -1.905 3.556) (layer F.SilkS) (width 0.127))
  (fp_line (start 1.905 3.556) (end 1.905 1.905) (layer F.SilkS) (width 0.127))
  (fp_line (start 1.905 1.905) (end 3.175 1.905) (layer F.SilkS) (width 0.127))
  (fp_line (start 3.175 1.905) (end 3.175 3.556) (layer F.SilkS) (width 0.127))
  (fp_line (start -6.35 -1.905) (end 6.35 -1.905) (layer F.SilkS) (width 0.127))
  (pad 1 thru_hole rect (at -3.81 0) (size 1.2064 1.2064) (drill 0.8) (layers *.Cu *.Mask)
    (solder_mask_margin 0.0762))
  (pad 2 thru_hole circle (at -1.27 0) (size 1.2064 1.2064) (drill 0.8) (layers *.Cu *.Mask)
    (solder_mask_margin 0.0762))
  (pad 3 thru_hole circle (at 1.27 0) (size 1.2064 1.2064) (drill 0.8) (layers *.Cu *.Mask)
    (solder_mask_margin 0.0762))
  (pad 4 thru_hole circle (at 3.81 0) (size 1.2064 1.2064) (drill 0.8) (layers *.Cu *.Mask)
    (solder_mask_margin 0.0762))
)
