(module TO92 (layer F.Cu) (tedit 0)
  (descr <b>TO-92</b>)
  (fp_text reference V-REG-1 (at -2.921 2.667 -270) (layer F.SilkS)
    (effects (font (size 1.2065 1.2065) (thickness 0.12065)) (justify left bottom))
  )
  (fp_text value "" (at 2.921 1.27 -180) (layer F.Fab)
    (effects (font (size 1.2065 1.2065) (thickness 0.12065)) (justify left bottom))
  )
  (fp_arc (start -0.000499 -0.000004) (end -2.095 1.651) (angle 111.097684) (layer F.SilkS) (width 0.1524))
  (fp_arc (start 0.000499 -0.000004) (end 0.7869 -2.5484) (angle 111.097684) (layer F.SilkS) (width 0.1524))
  (fp_line (start -2.095 1.651) (end 2.095 1.651) (layer F.SilkS) (width 0.1524))
  (fp_line (start -2.254 0.254) (end -0.286 0.254) (layer F.Fab) (width 0.1524))
  (fp_line (start -2.655 0.254) (end -2.254 0.254) (layer F.SilkS) (width 0.1524))
  (fp_line (start -0.286 0.254) (end 0.286 0.254) (layer F.SilkS) (width 0.1524))
  (fp_line (start 2.254 0.254) (end 2.655 0.254) (layer F.SilkS) (width 0.1524))
  (fp_line (start 0.286 0.254) (end 2.254 0.254) (layer F.Fab) (width 0.1524))
  (fp_arc (start 0 0) (end -0.7864 -2.5484) (angle 34.298964) (layer F.Fab) (width 0.1524))
  (pad 1 thru_hole circle (at -1.27 0) (size 1.2192 1.2192) (drill 0.8128) (layers *.Cu *.Mask)
    (solder_mask_margin 0.0762))
  (pad 2 thru_hole circle (at 0 -1.905) (size 1.2192 1.2192) (drill 0.8128) (layers *.Cu *.Mask)
    (solder_mask_margin 0.0762))
  (pad 3 thru_hole circle (at 1.27 0) (size 1.2192 1.2192) (drill 0.8128) (layers *.Cu *.Mask)
    (solder_mask_margin 0.0762))
)
